^D:\PROGRAMMING\NEW\0A\0A\DEBUG\MAIN.OBJ|D:\PROGRAMMING\NEW\0A\0A\DEBUG\MODULE1.OBJ|D:\PROGRAMMING\NEW\0A\0A\DEBUG\MODULE2.OBJ|D:\PROGRAMMING\NEW\0A\0A\DEBUG\MODULE3.OBJ
D:\PROGRAMMING\NEW\0A\DEBUG\0A.EXE
D:\PROGRAMMING\NEW\0A\DEBUG\0A.ILK
D:\PROGRAMMING\NEW\0A\DEBUG\0A.PDB
